{"timeStamp":"2020-07-22T06:52:52.669828100","results":[{"scenarioName":"GIVEN- the GitHub REST end point, WHEN- I invoke GET, THEN- I will receive the 200 status with body","steps":[{"name":"get_user_details","url":"https://reqres.in/api/users?page=2","correlationId":"4d7ee22f-0cc7-4d23-ae5b-860345504b10","operation":"GET","requestTimeStamp":"2020-07-22T06:52:52.794495","responseTimeStamp":"2020-07-22T06:52:53.455663200","responseDelay":661.0,"result":"FAILED","request":"{\r\n  \"Authorization\" : \"Basic Y2hhcmFhbnVzZXI6cGFzc3R3aXR0ZXI=\",\r\n  \"name\" : \"morpheus\",\r\n  \"job\" : \"leader\"\r\n}","response":"{\r\n  \"status\" : 200,\r\n  \"headers\" : {\r\n    \"Date\" : [ \"Wed, 22 Jul 2020 05:52:55 GMT\" ],\r\n    \"Server\" : [ \"cloudflare\" ],\r\n    \"Transfer-Encoding\" : [ \"chunked\" ],\r\n    \"CF-RAY\" : [ \"5b6ae5f919c65d47-LIS\" ],\r\n    \"Vary\" : [ \"Accept-Encoding\" ],\r\n    \"CF-Cache-Status\" : [ \"HIT\" ],\r\n    \"Expect-CT\" : [ \"max-age=604800, report-uri=\\\"https://report-uri.cloudflare.com/cdn-cgi/beacon/expect-ct\\\"\" ],\r\n    \"Via\" : [ \"1.1 vegur\" ],\r\n    \"Access-Control-Allow-Origin\" : [ \"*\" ],\r\n    \"Set-Cookie\" : [ \"__cfduid=d8fcc6190efc68ab6592550ec272295231595397175; expires=Fri, 21-Aug-20 05:52:55 GMT; path=/; domain=.reqres.in; HttpOnly; SameSite=Lax; Secure\" ],\r\n    \"X-Powered-By\" : [ \"Express\" ],\r\n    \"Content-Type\" : [ \"application/json; charset=utf-8\" ],\r\n    \"Connection\" : [ \"keep-alive\" ],\r\n    \"Etag\" : [ \"W/\\\"4dd-IPv5LdOOb6s5S9E3i59wBCJ1k/0\\\"\" ],\r\n    \"Cache-Control\" : [ \"max-age=14400\" ],\r\n    \"Age\" : [ \"6163\" ],\r\n    \"cf-request-id\" : [ \"0416ae0fb200005d47c9a32200000001\" ]\r\n  },\r\n  \"body\" : {\r\n    \"page\" : 2,\r\n    \"per_page\" : 6,\r\n    \"total\" : 12,\r\n    \"total_pages\" : 2,\r\n    \"data\" : [ {\r\n      \"id\" : 7,\r\n      \"email\" : \"michael.lawson@reqres.in\",\r\n      \"first_name\" : \"Michael\",\r\n      \"last_name\" : \"Lawson\",\r\n      \"avatar\" : \"https://s3.amazonaws.com/uifaces/faces/twitter/follettkyle/128.jpg\"\r\n    }, {\r\n      \"id\" : 8,\r\n      \"email\" : \"lindsay.ferguson@reqres.in\",\r\n      \"first_name\" : \"Lindsay\",\r\n      \"last_name\" : \"Ferguson\",\r\n      \"avatar\" : \"https://s3.amazonaws.com/uifaces/faces/twitter/araa3185/128.jpg\"\r\n    }, {\r\n      \"id\" : 9,\r\n      \"email\" : \"tobias.funke@reqres.in\",\r\n      \"first_name\" : \"Tobias\",\r\n      \"last_name\" : \"Funke\",\r\n      \"avatar\" : \"https://s3.amazonaws.com/uifaces/faces/twitter/vivekprvr/128.jpg\"\r\n    }, {\r\n      \"id\" : 10,\r\n      \"email\" : \"byron.fields@reqres.in\",\r\n      \"first_name\" : \"Byron\",\r\n      \"last_name\" : \"Fields\",\r\n      \"avatar\" : \"https://s3.amazonaws.com/uifaces/faces/twitter/russoedu/128.jpg\"\r\n    }, {\r\n      \"id\" : 11,\r\n      \"email\" : \"george.edwards@reqres.in\",\r\n      \"first_name\" : \"George\",\r\n      \"last_name\" : \"Edwards\",\r\n      \"avatar\" : \"https://s3.amazonaws.com/uifaces/faces/twitter/mrmoiree/128.jpg\"\r\n    }, {\r\n      \"id\" : 12,\r\n      \"email\" : \"rachel.howell@reqres.in\",\r\n      \"first_name\" : \"Rachel\",\r\n      \"last_name\" : \"Howell\",\r\n      \"avatar\" : \"https://s3.amazonaws.com/uifaces/faces/twitter/hebertialmeida/128.jpg\"\r\n    } ],\r\n    \"ad\" : {\r\n      \"company\" : \"StatusCode Weekly\",\r\n      \"url\" : \"http://statuscode.org/\",\r\n      \"text\" : \"A weekly newsletter focusing on software development, infrastructure, the server, performance, and the stack end of things.\"\r\n    }\r\n  }\r\n}","assertions":"Assumed Payload: \n{\r\n  \"status\" : 200,\r\n  \"body\" : {\r\n    \"name\" : \"morpheus\",\r\n    \"job\" : \"leader\",\r\n    \"id\" : \"245\",\r\n    \"createdAt\" : \"2020-07-22T05:51:47.926Z\"\r\n  }\r\n}\nAssertion Errors: \nAssertion jsonPath '$.body.job' with actual value 'null' did not match the expected value 'leader'\nAssertion jsonPath '$.body.id' with actual value 'null' did not match the expected value '245'\nAssertion jsonPath '$.body.name' with actual value 'null' did not match the expected value 'morpheus'\nAssertion jsonPath '$.body.createdAt' with actual value 'null' did not match the expected value '2020-07-22T05:51:47.926Z'\n"}],"loop":0}]}