{"timeStamp":"2020-07-22T05:58:41.142019800","results":[{"scenarioName":"GIVEN- the GitHub REST end point, WHEN- I invoke GET, THEN- I will receive the 200 status with body","steps":[{"name":"get_user_details","url":"https://reqres.in/api/users?page=2","correlationId":"d9ab0f52-123e-46e8-8139-dddba3e4b23f","operation":"GET","requestTimeStamp":"2020-07-22T05:58:41.292801700","responseTimeStamp":"2020-07-22T05:58:41.920005700","responseDelay":627.0,"result":"FAILED","request":"{\r\n  \"Authorization\" : \"Basic Y2hhcmFhbnVzZXI6cGFzc3R3aXR0ZXI=\"\r\n}","response":"{\r\n  \"status\" : 200,\r\n  \"headers\" : {\r\n    \"Date\" : [ \"Wed, 22 Jul 2020 04:58:43 GMT\" ],\r\n    \"Server\" : [ \"cloudflare\" ],\r\n    \"Transfer-Encoding\" : [ \"chunked\" ],\r\n    \"CF-RAY\" : [ \"5b6a96972ff8da82-LIS\" ],\r\n    \"Vary\" : [ \"Accept-Encoding\" ],\r\n    \"CF-Cache-Status\" : [ \"HIT\" ],\r\n    \"Expect-CT\" : [ \"max-age=604800, report-uri=\\\"https://report-uri.cloudflare.com/cdn-cgi/beacon/expect-ct\\\"\" ],\r\n    \"Via\" : [ \"1.1 vegur\" ],\r\n    \"Access-Control-Allow-Origin\" : [ \"*\" ],\r\n    \"Set-Cookie\" : [ \"__cfduid=dcf69b3150502c4a68b6a86ef9e27c7d41595393923; expires=Fri, 21-Aug-20 04:58:43 GMT; path=/; domain=.reqres.in; HttpOnly; SameSite=Lax; Secure\" ],\r\n    \"X-Powered-By\" : [ \"Express\" ],\r\n    \"Content-Type\" : [ \"application/json; charset=utf-8\" ],\r\n    \"Connection\" : [ \"keep-alive\" ],\r\n    \"Etag\" : [ \"W/\\\"4dd-IPv5LdOOb6s5S9E3i59wBCJ1k/0\\\"\" ],\r\n    \"Cache-Control\" : [ \"max-age=14400\" ],\r\n    \"Age\" : [ \"2911\" ],\r\n    \"cf-request-id\" : [ \"04167c72740000da82f2bc9200000001\" ]\r\n  },\r\n  \"body\" : {\r\n    \"page\" : 2,\r\n    \"per_page\" : 6,\r\n    \"total\" : 12,\r\n    \"total_pages\" : 2,\r\n    \"data\" : [ {\r\n      \"id\" : 7,\r\n      \"email\" : \"michael.lawson@reqres.in\",\r\n      \"first_name\" : \"Michael\",\r\n      \"last_name\" : \"Lawson\",\r\n      \"avatar\" : \"https://s3.amazonaws.com/uifaces/faces/twitter/follettkyle/128.jpg\"\r\n    }, {\r\n      \"id\" : 8,\r\n      \"email\" : \"lindsay.ferguson@reqres.in\",\r\n      \"first_name\" : \"Lindsay\",\r\n      \"last_name\" : \"Ferguson\",\r\n      \"avatar\" : \"https://s3.amazonaws.com/uifaces/faces/twitter/araa3185/128.jpg\"\r\n    }, {\r\n      \"id\" : 9,\r\n      \"email\" : \"tobias.funke@reqres.in\",\r\n      \"first_name\" : \"Tobias\",\r\n      \"last_name\" : \"Funke\",\r\n      \"avatar\" : \"https://s3.amazonaws.com/uifaces/faces/twitter/vivekprvr/128.jpg\"\r\n    }, {\r\n      \"id\" : 10,\r\n      \"email\" : \"byron.fields@reqres.in\",\r\n      \"first_name\" : \"Byron\",\r\n      \"last_name\" : \"Fields\",\r\n      \"avatar\" : \"https://s3.amazonaws.com/uifaces/faces/twitter/russoedu/128.jpg\"\r\n    }, {\r\n      \"id\" : 11,\r\n      \"email\" : \"george.edwards@reqres.in\",\r\n      \"first_name\" : \"George\",\r\n      \"last_name\" : \"Edwards\",\r\n      \"avatar\" : \"https://s3.amazonaws.com/uifaces/faces/twitter/mrmoiree/128.jpg\"\r\n    }, {\r\n      \"id\" : 12,\r\n      \"email\" : \"rachel.howell@reqres.in\",\r\n      \"first_name\" : \"Rachel\",\r\n      \"last_name\" : \"Howell\",\r\n      \"avatar\" : \"https://s3.amazonaws.com/uifaces/faces/twitter/hebertialmeida/128.jpg\"\r\n    } ],\r\n    \"ad\" : {\r\n      \"company\" : \"StatusCode Weekly\",\r\n      \"url\" : \"http://statuscode.org/\",\r\n      \"text\" : \"A weekly newsletter focusing on software development, infrastructure, the server, performance, and the stack end of things.\"\r\n    }\r\n  }\r\n}","assertions":"Assumed Payload: \n{\r\n  \"status\" : 200,\r\n  \"body\" : {\r\n    \"page\" : 2,\r\n    \"per_page\" : 6,\r\n    \"total\" : 12,\r\n    \"total_pages\" : 2,\r\n    \"data\" : [ {\r\n      \"id\" : 7,\r\n      \"email\" : \"michael.lawson@reqres.in\",\r\n      \"first_name\" : \"Michael\",\r\n      \"last_name\" : \"Lawson\",\r\n      \"avatar\" : \"https://s3.amazonaws.com/uifaces/faces/twitter/follettkyle/128.jpg\"\r\n    }, {\r\n      \"id\" : 8,\r\n      \"email\" : \"lindsay.ferguson@reqres.in\",\r\n      \"first_name\" : \"Lindsay\",\r\n      \"last_name\" : \"Fergusn\",\r\n      \"avatar\" : \"https://s3.amazonaws.com/uifaces/faces/twitter/araa3185/128.jpg\"\r\n    }, {\r\n      \"id\" : 9,\r\n      \"email\" : \"tobias.funke@reqres.in\",\r\n      \"first_name\" : \"Tobias\",\r\n      \"last_name\" : \"Funke\",\r\n      \"avatar\" : \"https://s3.amazonaws.com/uifaces/faces/twitter/vivekprvr/128.jpg\"\r\n    }, {\r\n      \"id\" : 10,\r\n      \"email\" : \"byron.fields@reqres.in\",\r\n      \"first_name\" : \"Byron\",\r\n      \"last_name\" : \"Fields\",\r\n      \"avatar\" : \"https://s3.amazonaws.com/uifaces/faces/twitter/russoedu/128.jpg\"\r\n    }, {\r\n      \"id\" : 11,\r\n      \"email\" : \"george.edwards@reqres.in\",\r\n      \"first_name\" : \"George\",\r\n      \"last_name\" : \"Edwards\",\r\n      \"avatar\" : \"https://s3.amazonaws.com/uifaces/faces/twitter/mrmoiree/128.jpg\"\r\n    }, {\r\n      \"id\" : 12,\r\n      \"email\" : \"rachel.howell@reqres.in\",\r\n      \"first_name\" : \"Rachel\",\r\n      \"last_name\" : \"Howell\",\r\n      \"avatar\" : \"https://s3.amazonaws.com/uifaces/faces/twitter/hebertialmeida/128.jpg\"\r\n    } ],\r\n    \"ad\" : {\r\n      \"company\" : \"StatusCode Weekly\",\r\n      \"url\" : \"http://statuscode.org/\",\r\n      \"text\" : \"A weekly newsletter focusing on software development, infrastructure, the server, performance, and the stack end of things.\"\r\n    }\r\n  }\r\n}\nAssertion Errors: \nAssertion jsonPath '$.body.data[1].last_name' with actual value 'Ferguson' did not match the expected value 'Fergusn'\n"}],"loop":0}]}