{"timeStamp":"2020-07-22T05:39:27.287846400","results":[{"scenarioName":"GIVEN- the GitHub REST end point, WHEN- I invoke GET, THEN- I will receive the 200 status with body","steps":[{"name":"get_user_details","url":"https://reqres.in/api/users?page=2/users/octocat","correlationId":"f8f28fa2-c3f1-4363-99ac-5f853d795a85","operation":"GET","requestTimeStamp":"2020-07-22T05:39:27.428259300","responseTimeStamp":"2020-07-22T05:39:28.294453300","responseDelay":866.0,"result":"FAILED","request":"{ }","response":"{\r\n  \"status\" : 200,\r\n  \"headers\" : {\r\n    \"Date\" : [ \"Wed, 22 Jul 2020 04:39:30 GMT\" ],\r\n    \"Server\" : [ \"cloudflare\" ],\r\n    \"Transfer-Encoding\" : [ \"chunked\" ],\r\n    \"CF-RAY\" : [ \"5b6a7a6bfbf0da76-LIS\" ],\r\n    \"Vary\" : [ \"Accept-Encoding\" ],\r\n    \"CF-Cache-Status\" : [ \"MISS\" ],\r\n    \"Expect-CT\" : [ \"max-age=604800, report-uri=\\\"https://report-uri.cloudflare.com/cdn-cgi/beacon/expect-ct\\\"\" ],\r\n    \"Via\" : [ \"1.1 vegur\" ],\r\n    \"Access-Control-Allow-Origin\" : [ \"*\" ],\r\n    \"Set-Cookie\" : [ \"__cfduid=d427ac726b3013135951d7a5a98f8cc771595392769; expires=Fri, 21-Aug-20 04:39:29 GMT; path=/; domain=.reqres.in; HttpOnly; SameSite=Lax; Secure\" ],\r\n    \"X-Powered-By\" : [ \"Express\" ],\r\n    \"Content-Type\" : [ \"application/json; charset=utf-8\" ],\r\n    \"Connection\" : [ \"keep-alive\" ],\r\n    \"Etag\" : [ \"W/\\\"4dd-IPv5LdOOb6s5S9E3i59wBCJ1k/0\\\"\" ],\r\n    \"Cache-Control\" : [ \"max-age=14400\" ],\r\n    \"cf-request-id\" : [ \"04166ad77f0000da764612c200000001\" ]\r\n  },\r\n  \"body\" : {\r\n    \"page\" : 2,\r\n    \"per_page\" : 6,\r\n    \"total\" : 12,\r\n    \"total_pages\" : 2,\r\n    \"data\" : [ {\r\n      \"id\" : 7,\r\n      \"email\" : \"michael.lawson@reqres.in\",\r\n      \"first_name\" : \"Michael\",\r\n      \"last_name\" : \"Lawson\",\r\n      \"avatar\" : \"https://s3.amazonaws.com/uifaces/faces/twitter/follettkyle/128.jpg\"\r\n    }, {\r\n      \"id\" : 8,\r\n      \"email\" : \"lindsay.ferguson@reqres.in\",\r\n      \"first_name\" : \"Lindsay\",\r\n      \"last_name\" : \"Ferguson\",\r\n      \"avatar\" : \"https://s3.amazonaws.com/uifaces/faces/twitter/araa3185/128.jpg\"\r\n    }, {\r\n      \"id\" : 9,\r\n      \"email\" : \"tobias.funke@reqres.in\",\r\n      \"first_name\" : \"Tobias\",\r\n      \"last_name\" : \"Funke\",\r\n      \"avatar\" : \"https://s3.amazonaws.com/uifaces/faces/twitter/vivekprvr/128.jpg\"\r\n    }, {\r\n      \"id\" : 10,\r\n      \"email\" : \"byron.fields@reqres.in\",\r\n      \"first_name\" : \"Byron\",\r\n      \"last_name\" : \"Fields\",\r\n      \"avatar\" : \"https://s3.amazonaws.com/uifaces/faces/twitter/russoedu/128.jpg\"\r\n    }, {\r\n      \"id\" : 11,\r\n      \"email\" : \"george.edwards@reqres.in\",\r\n      \"first_name\" : \"George\",\r\n      \"last_name\" : \"Edwards\",\r\n      \"avatar\" : \"https://s3.amazonaws.com/uifaces/faces/twitter/mrmoiree/128.jpg\"\r\n    }, {\r\n      \"id\" : 12,\r\n      \"email\" : \"rachel.howell@reqres.in\",\r\n      \"first_name\" : \"Rachel\",\r\n      \"last_name\" : \"Howell\",\r\n      \"avatar\" : \"https://s3.amazonaws.com/uifaces/faces/twitter/hebertialmeida/128.jpg\"\r\n    } ],\r\n    \"ad\" : {\r\n      \"company\" : \"StatusCode Weekly\",\r\n      \"url\" : \"http://statuscode.org/\",\r\n      \"text\" : \"A weekly newsletter focusing on software development, infrastructure, the server, performance, and the stack end of things.\"\r\n    }\r\n  }\r\n}","assertions":"Assumed Payload: \n{\r\n  \"page\" : 2,\r\n  \"per_page\" : 6,\r\n  \"total\" : 12,\r\n  \"total_pages\" : 2,\r\n  \"data\" : [ {\r\n    \"id\" : 7,\r\n    \"email\" : \"michael.lawson@reqres.in\",\r\n    \"first_name\" : \"Michael\",\r\n    \"last_name\" : \"Lawson\",\r\n    \"avatar\" : \"https://s3.amazonaws.com/uifaces/faces/twitter/follettkyle/128.jpg\"\r\n  }, {\r\n    \"id\" : 8,\r\n    \"email\" : \"lindsay.ferguson@reqres.in\",\r\n    \"first_name\" : \"Lindsay\",\r\n    \"last_name\" : \"Ferguson\",\r\n    \"avatar\" : \"https://s3.amazonaws.com/uifaces/faces/twitter/araa3185/128.jpg\"\r\n  }, {\r\n    \"id\" : 9,\r\n    \"email\" : \"tobias.funke@reqres.in\",\r\n    \"first_name\" : \"Tobias\",\r\n    \"last_name\" : \"Funke\",\r\n    \"avatar\" : \"https://s3.amazonaws.com/uifaces/faces/twitter/vivekprvr/128.jpg\"\r\n  }, {\r\n    \"id\" : 10,\r\n    \"email\" : \"byron.fields@reqres.in\",\r\n    \"first_name\" : \"Byron\",\r\n    \"last_name\" : \"Fields\",\r\n    \"avatar\" : \"https://s3.amazonaws.com/uifaces/faces/twitter/russoedu/128.jpg\"\r\n  }, {\r\n    \"id\" : 11,\r\n    \"email\" : \"george.edwards@reqres.in\",\r\n    \"first_name\" : \"George\",\r\n    \"last_name\" : \"Edwards\",\r\n    \"avatar\" : \"https://s3.amazonaws.com/uifaces/faces/twitter/mrmoiree/128.jpg\"\r\n  }, {\r\n    \"id\" : 12,\r\n    \"email\" : \"rachel.howell@reqres.in\",\r\n    \"first_name\" : \"Rachel\",\r\n    \"last_name\" : \"Howell\",\r\n    \"avatar\" : \"https://s3.amazonaws.com/uifaces/faces/twitter/hebertialmeida/128.jpg\"\r\n  } ],\r\n  \"ad\" : {\r\n    \"company\" : \"StatusCode Weekly\",\r\n    \"url\" : \"http://statuscode.org/\",\r\n    \"text\" : \"A weekly newsletter focusing on software development, infrastructure, the server, performance, and the stack end of things.\"\r\n  }\r\n}\nAssertion Errors: \nAssertion jsonPath '$.data[3].id' with actual value 'null' did not match the expected value '10'\nAssertion jsonPath '$.data[1].last_name' with actual value 'null' did not match the expected value 'Ferguson'\nAssertion jsonPath '$.data[2].avatar' with actual value 'null' did not match the expected value 'https://s3.amazonaws.com/uifaces/faces/twitter/vivekprvr/128.jpg'\nAssertion jsonPath '$.ad.company' with actual value 'null' did not match the expected value 'StatusCode Weekly'\nAssertion jsonPath '$.total_pages' with actual value 'null' did not match the expected value '2'\nAssertion jsonPath '$.data[1].avatar' with actual value 'null' did not match the expected value 'https://s3.amazonaws.com/uifaces/faces/twitter/araa3185/128.jpg'\nAssertion jsonPath '$.data[4].avatar' with actual value 'null' did not match the expected value 'https://s3.amazonaws.com/uifaces/faces/twitter/mrmoiree/128.jpg'\nAssertion jsonPath '$.ad.url' with actual value 'null' did not match the expected value 'http://statuscode.org/'\nAssertion jsonPath '$.per_page' with actual value 'null' did not match the expected value '6'\nAssertion jsonPath '$.total' with actual value 'null' did not match the expected value '12'\nAssertion jsonPath '$.data[3].avatar' with actual value 'null' did not match the expected value 'https://s3.amazonaws.com/uifaces/faces/twitter/russoedu/128.jpg'\nAssertion jsonPath '$.data[0].last_name' with actual value 'null' did not match the expected value 'Lawson'\nAssertion jsonPath '$.data[4].last_name' with actual value 'null' did not match the expected value 'Edwards'\nAssertion jsonPath '$.data[0].email' with actual value 'null' did not match the expected value 'michael.lawson@reqres.in'\nAssertion jsonPath '$.data[1].email' with actual value 'null' did not match the expected value 'lindsay.ferguson@reqres.in'\nAssertion jsonPath '$.data[2].email' with actual value 'null' did not match the expected value 'tobias.funke@reqres.in'\nAssertion jsonPath '$.data[2].id' with actual value 'null' did not match the expected value '9'\nAssertion jsonPath '$.data[0].avatar' with actual value 'null' did not match the expected value 'https://s3.amazonaws.com/uifaces/faces/twitter/follettkyle/128.jpg'\nAssertion jsonPath '$.data[3].email' with actual value 'null' did not match the expected value 'byron.fields@reqres.in'\nAssertion jsonPath '$.data[4].email' with actual value 'null' did not match the expected value 'george.edwards@reqres.in'\nAssertion jsonPath '$.data[5].email' with actual value 'null' did not match the expected value 'rachel.howell@reqres.in'\nAssertion jsonPath '$.data[3].last_name' with actual value 'null' did not match the expected value 'Fields'\nAssertion jsonPath '$.data[4].first_name' with actual value 'null' did not match the expected value 'George'\nAssertion jsonPath '$.data[1].id' with actual value 'null' did not match the expected value '8'\nAssertion jsonPath '$.data[5].first_name' with actual value 'null' did not match the expected value 'Rachel'\nAssertion jsonPath '$.data[5].id' with actual value 'null' did not match the expected value '12'\nAssertion jsonPath '$.data[0].first_name' with actual value 'null' did not match the expected value 'Michael'\nAssertion jsonPath '$.page' with actual value 'null' did not match the expected value '2'\nAssertion jsonPath '$.data[2].last_name' with actual value 'null' did not match the expected value 'Funke'\nAssertion jsonPath '$.data[5].last_name' with actual value 'null' did not match the expected value 'Howell'\nAssertion jsonPath '$.data[3].first_name' with actual value 'null' did not match the expected value 'Byron'\nAssertion jsonPath '$.data[0].id' with actual value 'null' did not match the expected value '7'\nAssertion jsonPath '$.ad.text' with actual value 'null' did not match the expected value 'A weekly newsletter focusing on software development, infrastructure, the server, performance, and the stack end of things.'\nAssertion jsonPath '$.data[5].avatar' with actual value 'null' did not match the expected value 'https://s3.amazonaws.com/uifaces/faces/twitter/hebertialmeida/128.jpg'\nAssertion jsonPath '$.data[1].first_name' with actual value 'null' did not match the expected value 'Lindsay'\nAssertion jsonPath '$.data[2].first_name' with actual value 'null' did not match the expected value 'Tobias'\nAssertion jsonPath '$.data[4].id' with actual value 'null' did not match the expected value '11'\n"}],"loop":0}]}