{"timeStamp":"2020-07-22T06:53:31.211720","results":[{"scenarioName":"GIVEN- the GitHub REST end point, WHEN- I invoke GET, THEN- I will receive the 200 status with body","steps":[{"name":"get_user_details","url":"https://reqres.in/api/users","correlationId":"44a99e44-a757-488a-8d98-b66cb71822d4","operation":"GET","requestTimeStamp":"2020-07-22T06:53:31.309458","responseTimeStamp":"2020-07-22T06:53:32.161859800","responseDelay":852.0,"result":"FAILED","request":"{\r\n  \"Authorization\" : \"Basic Y2hhcmFhbnVzZXI6cGFzc3R3aXR0ZXI=\",\r\n  \"name\" : \"morpheus\",\r\n  \"job\" : \"leader\"\r\n}","response":"{\r\n  \"status\" : 200,\r\n  \"headers\" : {\r\n    \"Date\" : [ \"Wed, 22 Jul 2020 05:53:33 GMT\" ],\r\n    \"Server\" : [ \"cloudflare\" ],\r\n    \"Transfer-Encoding\" : [ \"chunked\" ],\r\n    \"CF-RAY\" : [ \"5b6ae6e9ec775d23-LIS\" ],\r\n    \"Vary\" : [ \"Accept-Encoding\" ],\r\n    \"CF-Cache-Status\" : [ \"REVALIDATED\" ],\r\n    \"Expect-CT\" : [ \"max-age=604800, report-uri=\\\"https://report-uri.cloudflare.com/cdn-cgi/beacon/expect-ct\\\"\" ],\r\n    \"Via\" : [ \"1.1 vegur\" ],\r\n    \"Access-Control-Allow-Origin\" : [ \"*\" ],\r\n    \"Set-Cookie\" : [ \"__cfduid=de8634b59c81d11b29b47138659bb15701595397213; expires=Fri, 21-Aug-20 05:53:33 GMT; path=/; domain=.reqres.in; HttpOnly; SameSite=Lax; Secure\" ],\r\n    \"X-Powered-By\" : [ \"Express\" ],\r\n    \"Content-Type\" : [ \"application/json; charset=utf-8\" ],\r\n    \"Connection\" : [ \"keep-alive\" ],\r\n    \"Etag\" : [ \"W/\\\"4c5-znzuruTKwnH4068T7ikF88YcCME\\\"\" ],\r\n    \"Cache-Control\" : [ \"max-age=14400\" ],\r\n    \"cf-request-id\" : [ \"0416aea62e00005d23e91a0200000001\" ]\r\n  },\r\n  \"body\" : {\r\n    \"page\" : 1,\r\n    \"per_page\" : 6,\r\n    \"total\" : 12,\r\n    \"total_pages\" : 2,\r\n    \"data\" : [ {\r\n      \"id\" : 1,\r\n      \"email\" : \"george.bluth@reqres.in\",\r\n      \"first_name\" : \"George\",\r\n      \"last_name\" : \"Bluth\",\r\n      \"avatar\" : \"https://s3.amazonaws.com/uifaces/faces/twitter/calebogden/128.jpg\"\r\n    }, {\r\n      \"id\" : 2,\r\n      \"email\" : \"janet.weaver@reqres.in\",\r\n      \"first_name\" : \"Janet\",\r\n      \"last_name\" : \"Weaver\",\r\n      \"avatar\" : \"https://s3.amazonaws.com/uifaces/faces/twitter/josephstein/128.jpg\"\r\n    }, {\r\n      \"id\" : 3,\r\n      \"email\" : \"emma.wong@reqres.in\",\r\n      \"first_name\" : \"Emma\",\r\n      \"last_name\" : \"Wong\",\r\n      \"avatar\" : \"https://s3.amazonaws.com/uifaces/faces/twitter/olegpogodaev/128.jpg\"\r\n    }, {\r\n      \"id\" : 4,\r\n      \"email\" : \"eve.holt@reqres.in\",\r\n      \"first_name\" : \"Eve\",\r\n      \"last_name\" : \"Holt\",\r\n      \"avatar\" : \"https://s3.amazonaws.com/uifaces/faces/twitter/marcoramires/128.jpg\"\r\n    }, {\r\n      \"id\" : 5,\r\n      \"email\" : \"charles.morris@reqres.in\",\r\n      \"first_name\" : \"Charles\",\r\n      \"last_name\" : \"Morris\",\r\n      \"avatar\" : \"https://s3.amazonaws.com/uifaces/faces/twitter/stephenmoon/128.jpg\"\r\n    }, {\r\n      \"id\" : 6,\r\n      \"email\" : \"tracey.ramos@reqres.in\",\r\n      \"first_name\" : \"Tracey\",\r\n      \"last_name\" : \"Ramos\",\r\n      \"avatar\" : \"https://s3.amazonaws.com/uifaces/faces/twitter/bigmancho/128.jpg\"\r\n    } ],\r\n    \"ad\" : {\r\n      \"company\" : \"StatusCode Weekly\",\r\n      \"url\" : \"http://statuscode.org/\",\r\n      \"text\" : \"A weekly newsletter focusing on software development, infrastructure, the server, performance, and the stack end of things.\"\r\n    }\r\n  }\r\n}","assertions":"Assumed Payload: \n{\r\n  \"status\" : 200,\r\n  \"body\" : {\r\n    \"name\" : \"morpheus\",\r\n    \"job\" : \"leader\",\r\n    \"id\" : \"245\",\r\n    \"createdAt\" : \"2020-07-22T05:51:47.926Z\"\r\n  }\r\n}\nAssertion Errors: \nAssertion jsonPath '$.body.job' with actual value 'null' did not match the expected value 'leader'\nAssertion jsonPath '$.body.id' with actual value 'null' did not match the expected value '245'\nAssertion jsonPath '$.body.name' with actual value 'null' did not match the expected value 'morpheus'\nAssertion jsonPath '$.body.createdAt' with actual value 'null' did not match the expected value '2020-07-22T05:51:47.926Z'\n"}],"loop":0}]}