{"timeStamp":"2020-07-23T12:12:34.215118800","results":[{"scenarioName":"SchemaListUsersTest","steps":[{"name":"SchemaListUsersTest","url":"https://reqres.in/api/users?page=2","correlationId":"27d47d7b-9b93-43cb-ae5c-0f7b219e4c23","operation":"POST","requestTimeStamp":"2020-07-23T12:12:34.329986100","responseTimeStamp":"2020-07-23T12:12:35.552052200","responseDelay":1222.0,"result":"FAILED","request":"{\r\n  \"Authorization\" : \"Basic Y2hhcmFhbnVzZXI6cGFzc3R3aXR0ZXI=\",\r\n  \"name\" : \"morpheus\",\r\n  \"job\" : \"leader\"\r\n}","response":"{\r\n  \"status\" : 201,\r\n  \"headers\" : {\r\n    \"Date\" : [ \"Thu, 23 Jul 2020 11:12:36 GMT\" ],\r\n    \"Content-Length\" : [ \"51\" ],\r\n    \"Server\" : [ \"cloudflare\" ],\r\n    \"CF-RAY\" : [ \"5b74f7a1385c5d2f-LIS\" ],\r\n    \"CF-Cache-Status\" : [ \"DYNAMIC\" ],\r\n    \"Expect-CT\" : [ \"max-age=604800, report-uri=\\\"https://report-uri.cloudflare.com/cdn-cgi/beacon/expect-ct\\\"\" ],\r\n    \"Via\" : [ \"1.1 vegur\" ],\r\n    \"Access-Control-Allow-Origin\" : [ \"*\" ],\r\n    \"Set-Cookie\" : [ \"__cfduid=d0d0a6f6be43144c0116ab6b910c011231595502756; expires=Sat, 22-Aug-20 11:12:36 GMT; path=/; domain=.reqres.in; HttpOnly; SameSite=Lax; Secure\" ],\r\n    \"X-Powered-By\" : [ \"Express\" ],\r\n    \"Content-Type\" : [ \"application/json; charset=utf-8\" ],\r\n    \"Connection\" : [ \"keep-alive\" ],\r\n    \"Etag\" : [ \"W/\\\"33-Gk0mYe+hvOgpnlwq5F/Ak/vQ1YE\\\"\" ],\r\n    \"cf-request-id\" : [ \"041cf918c700005d2fd9b89200000001\" ]\r\n  },\r\n  \"body\" : {\r\n    \"id\" : \"435\",\r\n    \"createdAt\" : \"2020-07-23T11:12:36.312Z\"\r\n  }\r\n}","assertions":"Assumed Payload: \n{\r\n  \"status\" : 201,\r\n  \"headers\" : { },\r\n  \"body\" : {\r\n    \"page\" : 2,\r\n    \"per_page\" : 6,\r\n    \"total\" : 12,\r\n    \"total_pages\" : 2,\r\n    \"data\" : [ {\r\n      \"id\" : 7,\r\n      \"email\" : \"michael.lawson@reqres.in\",\r\n      \"first_name\" : \"Michael\",\r\n      \"last_name\" : \"Lawson\",\r\n      \"avatar\" : \"https://s3.amazonaws.com/uifaces/faces/twitter/follettkyle/128.jpg\"\r\n    }, {\r\n      \"id\" : 8,\r\n      \"email\" : \"lindsay.ferguson@reqres.in\",\r\n      \"first_name\" : \"Lindsay\",\r\n      \"last_name\" : \"Ferguson\",\r\n      \"avatar\" : \"https://s3.amazonaws.com/uifaces/faces/twitter/araa3185/128.jpg\"\r\n    }, {\r\n      \"id\" : 9,\r\n      \"email\" : \"tobias.funke@reqres.in\",\r\n      \"first_name\" : \"Tobias\",\r\n      \"last_name\" : \"Funke\",\r\n      \"avatar\" : \"https://s3.amazonaws.com/uifaces/faces/twitter/vivekprvr/128.jpg\"\r\n    }, {\r\n      \"id\" : 10,\r\n      \"email\" : \"byron.fields@reqres.in\",\r\n      \"first_name\" : \"Byron\",\r\n      \"last_name\" : \"Fields\",\r\n      \"avatar\" : \"https://s3.amazonaws.com/uifaces/faces/twitter/russoedu/128.jpg\"\r\n    }, {\r\n      \"id\" : 11,\r\n      \"email\" : \"george.edwards@reqres.in\",\r\n      \"first_name\" : \"George\",\r\n      \"last_name\" : \"Edwards\",\r\n      \"avatar\" : \"https://s3.amazonaws.com/uifaces/faces/twitter/mrmoiree/128.jpg\"\r\n    }, {\r\n      \"id\" : 12,\r\n      \"email\" : \"rachel.howell@reqres.in\",\r\n      \"first_name\" : \"Rachel\",\r\n      \"last_name\" : \"Howell\",\r\n      \"avatar\" : \"https://s3.amazonaws.com/uifaces/faces/twitter/hebertialmeida/128.jpg\"\r\n    } ],\r\n    \"ad\" : {\r\n      \"company\" : \"StatusCode Weekly\",\r\n      \"url\" : \"http://statuscode.org/\",\r\n      \"text\" : \"A weekly newsletter focusing on software development, infrastructure, the server, performance, and the stack end of things.\"\r\n    }\r\n  }\r\n}\nAssertion Errors: \nAssertion jsonPath '$.body.data[4].id' with actual value 'null' did not match the expected value '11'\nAssertion jsonPath '$.body.ad.url' with actual value 'null' did not match the expected value 'http://statuscode.org/'\nAssertion jsonPath '$.body.page' with actual value 'null' did not match the expected value '2'\nAssertion jsonPath '$.body.data[0].email' with actual value 'null' did not match the expected value 'michael.lawson@reqres.in'\nAssertion jsonPath '$.body.data[1].email' with actual value 'null' did not match the expected value 'lindsay.ferguson@reqres.in'\nAssertion jsonPath '$.body.data[2].email' with actual value 'null' did not match the expected value 'tobias.funke@reqres.in'\nAssertion jsonPath '$.body.data[5].last_name' with actual value 'null' did not match the expected value 'Howell'\nAssertion jsonPath '$.body.ad.text' with actual value 'null' did not match the expected value 'A weekly newsletter focusing on software development, infrastructure, the server, performance, and the stack end of things.'\nAssertion jsonPath '$.body.data[4].email' with actual value 'null' did not match the expected value 'george.edwards@reqres.in'\nAssertion jsonPath '$.body.data[3].id' with actual value 'null' did not match the expected value '10'\nAssertion jsonPath '$.body.data[0].id' with actual value 'null' did not match the expected value '7'\nAssertion jsonPath '$.body.data[5].email' with actual value 'null' did not match the expected value 'rachel.howell@reqres.in'\nAssertion jsonPath '$.body.data[3].email' with actual value 'null' did not match the expected value 'byron.fields@reqres.in'\nAssertion jsonPath '$.body.ad.company' with actual value 'null' did not match the expected value 'StatusCode Weekly'\nAssertion jsonPath '$.body.data[0].last_name' with actual value 'null' did not match the expected value 'Lawson'\nAssertion jsonPath '$.body.data[0].first_name' with actual value 'null' did not match the expected value 'Michael'\nAssertion jsonPath '$.body.data[1].avatar' with actual value 'null' did not match the expected value 'https://s3.amazonaws.com/uifaces/faces/twitter/araa3185/128.jpg'\nAssertion jsonPath '$.body.data[4].last_name' with actual value 'null' did not match the expected value 'Edwards'\nAssertion jsonPath '$.body.data[1].first_name' with actual value 'null' did not match the expected value 'Lindsay'\nAssertion jsonPath '$.body.data[0].avatar' with actual value 'null' did not match the expected value 'https://s3.amazonaws.com/uifaces/faces/twitter/follettkyle/128.jpg'\nAssertion jsonPath '$.body.total_pages' with actual value 'null' did not match the expected value '2'\nAssertion jsonPath '$.body.data[1].id' with actual value 'null' did not match the expected value '8'\nAssertion jsonPath '$.body.data[4].first_name' with actual value 'null' did not match the expected value 'George'\nAssertion jsonPath '$.body.data[5].first_name' with actual value 'null' did not match the expected value 'Rachel'\nAssertion jsonPath '$.body.data[1].last_name' with actual value 'null' did not match the expected value 'Ferguson'\nAssertion jsonPath '$.body.data[5].avatar' with actual value 'null' did not match the expected value 'https://s3.amazonaws.com/uifaces/faces/twitter/hebertialmeida/128.jpg'\nAssertion jsonPath '$.body.data[3].last_name' with actual value 'null' did not match the expected value 'Fields'\nAssertion jsonPath '$.body.data[5].id' with actual value 'null' did not match the expected value '12'\nAssertion jsonPath '$.body.data[4].avatar' with actual value 'null' did not match the expected value 'https://s3.amazonaws.com/uifaces/faces/twitter/mrmoiree/128.jpg'\nAssertion jsonPath '$.body.total' with actual value 'null' did not match the expected value '12'\nAssertion jsonPath '$.body.data[2].id' with actual value 'null' did not match the expected value '9'\nAssertion jsonPath '$.body.data[3].avatar' with actual value 'null' did not match the expected value 'https://s3.amazonaws.com/uifaces/faces/twitter/russoedu/128.jpg'\nAssertion jsonPath '$.body.data[3].first_name' with actual value 'null' did not match the expected value 'Byron'\nAssertion jsonPath '$.body.data[2].first_name' with actual value 'null' did not match the expected value 'Tobias'\nAssertion jsonPath '$.body.data[2].last_name' with actual value 'null' did not match the expected value 'Funke'\nAssertion jsonPath '$.body.data[2].avatar' with actual value 'null' did not match the expected value 'https://s3.amazonaws.com/uifaces/faces/twitter/vivekprvr/128.jpg'\nAssertion jsonPath '$.body.per_page' with actual value 'null' did not match the expected value '6'\n"}],"loop":0}]}