{"timeStamp":"2020-07-23T13:19:48.207442100","results":[{"scenarioName":"SchemaListUsersTest","steps":[{"name":"SchemaListUsersTest","url":"https://reqres.in/api/users?page=2","correlationId":"ce90be92-d3b6-44f4-ba3e-1f1665dc6865","operation":"GET","requestTimeStamp":"2020-07-23T13:19:48.208438400","responseTimeStamp":"2020-07-23T13:19:48.291728200","responseDelay":83.0,"result":"PASSED","assertions":"{\r\n  \"status\" : 200,\r\n  \"headers\" : { },\r\n  \"body\" : {\r\n    \"page\" : 2,\r\n    \"per_page\" : 6,\r\n    \"total\" : 12,\r\n    \"total_pages\" : 2,\r\n    \"data\" : [ {\r\n      \"id\" : 7,\r\n      \"email\" : \"michael.lawson@reqres.in\",\r\n      \"first_name\" : \"Michael\",\r\n      \"last_name\" : \"Lawson\",\r\n      \"avatar\" : \"https://s3.amazonaws.com/uifaces/faces/twitter/follettkyle/128.jpg\"\r\n    }, {\r\n      \"id\" : 8,\r\n      \"email\" : \"lindsay.ferguson@reqres.in\",\r\n      \"first_name\" : \"Lindsay\",\r\n      \"last_name\" : \"Ferguson\",\r\n      \"avatar\" : \"https://s3.amazonaws.com/uifaces/faces/twitter/araa3185/128.jpg\"\r\n    }, {\r\n      \"id\" : 9,\r\n      \"email\" : \"tobias.funke@reqres.in\",\r\n      \"first_name\" : \"Tobias\",\r\n      \"last_name\" : \"Funke\",\r\n      \"avatar\" : \"https://s3.amazonaws.com/uifaces/faces/twitter/vivekprvr/128.jpg\"\r\n    }, {\r\n      \"id\" : 10,\r\n      \"email\" : \"byron.fields@reqres.in\",\r\n      \"first_name\" : \"Byron\",\r\n      \"last_name\" : \"Fields\",\r\n      \"avatar\" : \"https://s3.amazonaws.com/uifaces/faces/twitter/russoedu/128.jpg\"\r\n    }, {\r\n      \"id\" : 11,\r\n      \"email\" : \"george.edwards@reqres.in\",\r\n      \"first_name\" : \"George\",\r\n      \"last_name\" : \"Edwards\",\r\n      \"avatar\" : \"https://s3.amazonaws.com/uifaces/faces/twitter/mrmoiree/128.jpg\"\r\n    }, {\r\n      \"id\" : 12,\r\n      \"email\" : \"rachel.howell@reqres.in\",\r\n      \"first_name\" : \"Rachel\",\r\n      \"last_name\" : \"Howell\",\r\n      \"avatar\" : \"https://s3.amazonaws.com/uifaces/faces/twitter/hebertialmeida/128.jpg\"\r\n    } ],\r\n    \"ad\" : {\r\n      \"company\" : \"StatusCode Weekly\",\r\n      \"url\" : \"http://statuscode.org/\",\r\n      \"text\" : \"A weekly newsletter focusing on software development, infrastructure, the server, performance, and the stack end of things.\"\r\n    }\r\n  }\r\n}"}],"loop":0}]}